[
    {
        "id": "post",
        "section": "main",
        "date": "June 23, 2021",
        "title": "My First Blog Post",
        "description": "<p>Post content</p>\n",
        "url": "blog_store/posts/main/post.md"
    }
]